%YAML 1.1
%TAG !u! tag:unity3d.com,2011:
--- !u!1 &4633699060903595896
GameObject:
  m_ObjectHideFlags: 0
  m_CorrespondingSourceObject: {fileID: 0}
  m_PrefabInstance: {fileID: 0}
  m_PrefabAsset: {fileID: 0}
  serializedVersion: 6
  m_Component:
  - component: {fileID: 4633699060903620736}
  - component: {fileID: 4633699060903620743}
  - component: {fileID: 4633699060903595898}
  - component: {fileID: 4633699060903595897}
  - component: {fileID: 7141441244272507691}
  m_Layer: 0
  m_Name: '[BB] CoalFactory'
  m_TagString: cube
  m_Icon: {fileID: 0}
  m_NavMeshLayer: 0
  m_StaticEditorFlags: 0
  m_IsActive: 1
--- !u!4 &4633699060903620736
Transform:
  m_ObjectHideFlags: 0
  m_CorrespondingSourceObject: {fileID: 0}
  m_PrefabInstance: {fileID: 0}
  m_PrefabAsset: {fileID: 0}
  m_GameObject: {fileID: 4633699060903595896}
  m_LocalRotation: {x: 0, y: 0, z: 0, w: 1}
  m_LocalPosition: {x: -0.121, y: 0.388, z: -0.433}
  m_LocalScale: {x: 0.05, y: 0.05, z: 0.05}
  m_ConstrainProportionsScale: 1
  m_Children:
  - {fileID: 8091152158965607692}
  m_Father: {fileID: 0}
  m_RootOrder: 0
  m_LocalEulerAnglesHint: {x: 0, y: 0, z: 0}
--- !u!114 &4633699060903620743
MonoBehaviour:
  m_ObjectHideFlags: 0
  m_CorrespondingSourceObject: {fileID: 0}
  m_PrefabInstance: {fileID: 0}
  m_PrefabAsset: {fileID: 0}
  m_GameObject: {fileID: 4633699060903595896}
  m_Enabled: 1
  m_EditorHideFlags: 0
  m_Script: {fileID: 11500000, guid: 5b023183069df224080314a560e6e1ff, type: 3}
  m_Name: 
  m_EditorClassIdentifier: 
  blockId: 5c5184f2-c2f5-4063-b14b-3b1264fb3c1a
  instanceId: 65a2f8fc-4bad-405c-86ad-9da0d3a464c3
  version: 1
--- !u!114 &4633699060903595898
MonoBehaviour:
  m_ObjectHideFlags: 0
  m_CorrespondingSourceObject: {fileID: 0}
  m_PrefabInstance: {fileID: 0}
  m_PrefabAsset: {fileID: 0}
  m_GameObject: {fileID: 4633699060903595896}
  m_Enabled: 1
  m_EditorHideFlags: 0
  m_Script: {fileID: 11500000, guid: 43f86b14a27b52f4f9298c33015b5c26, type: 3}
  m_Name: 
  m_EditorClassIdentifier: 
  _transferOnSecondSelection: 0
  _addNewPointsToFront: 0
  _forwardElement: {fileID: 0}
  _oneGrabTransformer: {fileID: 0}
  _twoGrabTransformer: {fileID: 0}
  _targetTransform: {fileID: 0}
  _maxGrabPoints: -1
--- !u!114 &4633699060903595897
MonoBehaviour:
  m_ObjectHideFlags: 0
  m_CorrespondingSourceObject: {fileID: 0}
  m_PrefabInstance: {fileID: 0}
  m_PrefabAsset: {fileID: 0}
  m_GameObject: {fileID: 4633699060903595896}
  m_Enabled: 1
  m_EditorHideFlags: 0
  m_Script: {fileID: 11500000, guid: e9a7676b01585ce43908639a27765dfc, type: 3}
  m_Name: 
  m_EditorClassIdentifier: 
  _interactorFilters: []
  _maxInteractors: -1
  _maxSelectingInteractors: -1
  _data: {fileID: 0}
  _pointableElement: {fileID: 4633699060903595898}
  _rigidbody: {fileID: 8091152158965607698}
  _physicsGrabbable: {fileID: 0}
  _resetGrabOnGrabsUpdated: 1
  _scoringModifier:
    _positionRotationWeight: 0.8
  _slippiness: 0
  _supportedGrabTypes: 3
  _pinchGrabRules:
    _thumbRequirement: 1
    _indexRequirement: 1
    _middleRequirement: 1
    _ringRequirement: 0
    _pinkyRequirement: 0
    _unselectMode: 0
  _palmGrabRules:
    _thumbRequirement: 1
    _indexRequirement: 2
    _middleRequirement: 2
    _ringRequirement: 2
    _pinkyRequirement: 1
    _unselectMode: 0
  _movementProvider: {fileID: 0}
  _handAligment: 1
  _handGrabPoses: []
--- !u!114 &7141441244272507691
MonoBehaviour:
  m_ObjectHideFlags: 0
  m_CorrespondingSourceObject: {fileID: 0}
  m_PrefabInstance: {fileID: 0}
  m_PrefabAsset: {fileID: 0}
  m_GameObject: {fileID: 4633699060903595896}
  m_Enabled: 1
  m_EditorHideFlags: 0
  m_Script: {fileID: 11500000, guid: 1464721f2283eb14e94a33e812b47be4, type: 3}
  m_Name: 
  m_EditorClassIdentifier: 
  _interactableView: {fileID: 4633699060903595897}
  _whenHover:
    m_PersistentCalls:
      m_Calls: []
  _whenUnhover:
    m_PersistentCalls:
      m_Calls: []
  _whenSelect:
    m_PersistentCalls:
      m_Calls:
      - m_Target: {fileID: 8091152158965607696}
        m_TargetAssemblyTypeName: XR_cube, Assembly-CSharp
        m_MethodName: set_ster
        m_Mode: 6
        m_Arguments:
          m_ObjectArgument: {fileID: 0}
          m_ObjectArgumentAssemblyTypeName: UnityEngine.Object, UnityEngine
          m_IntArgument: 0
          m_FloatArgument: 0
          m_StringArgument: 
          m_BoolArgument: 1
        m_CallState: 2
      - m_Target: {fileID: 8091152158965607696}
        m_TargetAssemblyTypeName: XR_cube, Assembly-CSharp
        m_MethodName: setImage
        m_Mode: 6
        m_Arguments:
          m_ObjectArgument: {fileID: 0}
          m_ObjectArgumentAssemblyTypeName: UnityEngine.Object, UnityEngine
          m_IntArgument: 0
          m_FloatArgument: 0
          m_StringArgument: 
          m_BoolArgument: 1
        m_CallState: 2
  _whenUnselect:
    m_PersistentCalls:
      m_Calls:
      - m_Target: {fileID: 8091152158965607696}
        m_TargetAssemblyTypeName: XR_cube, Assembly-CSharp
        m_MethodName: set_ster
        m_Mode: 6
        m_Arguments:
          m_ObjectArgument: {fileID: 0}
          m_ObjectArgumentAssemblyTypeName: UnityEngine.Object, UnityEngine
          m_IntArgument: 0
          m_FloatArgument: 0
          m_StringArgument: 
          m_BoolArgument: 0
        m_CallState: 2
      - m_Target: {fileID: 8091152158965607696}
        m_TargetAssemblyTypeName: XR_cube, Assembly-CSharp
        m_MethodName: setImage
        m_Mode: 6
        m_Arguments:
          m_ObjectArgument: {fileID: 0}
          m_ObjectArgumentAssemblyTypeName: UnityEngine.Object, UnityEngine
          m_IntArgument: 0
          m_FloatArgument: 0
          m_StringArgument: 
          m_BoolArgument: 0
        m_CallState: 2
  _whenInteractorViewAdded:
    m_PersistentCalls:
      m_Calls: []
  _whenInteractorViewRemoved:
    m_PersistentCalls:
      m_Calls: []
  _whenSelectingInteractorViewAdded:
    m_PersistentCalls:
      m_Calls: []
  _whenSelectingInteractorViewRemoved:
    m_PersistentCalls:
      m_Calls: []
--- !u!1001 &4633699060795676702
PrefabInstance:
  m_ObjectHideFlags: 0
  serializedVersion: 2
  m_Modification:
    m_TransformParent: {fileID: 4633699060903620736}
    m_Modifications:
    - target: {fileID: 1392223226696985169, guid: 2523dfac71a124742b390bea534a6fed, type: 3}
      propertyPath: m_Materials.Array.data[0]
      value: 
      objectReference: {fileID: 2100000, guid: e6d3bcc60c7ebe24a98c9969af006180, type: 2}
    - target: {fileID: 2690115848972749126, guid: 2523dfac71a124742b390bea534a6fed, type: 3}
      propertyPath: m_Materials.Array.data[0]
      value: 
      objectReference: {fileID: 2100000, guid: a6a8ce90e4a7d5b4ea402654f3d6b32d, type: 2}
    - target: {fileID: 3460937955178067212, guid: 2523dfac71a124742b390bea534a6fed, type: 3}
      propertyPath: m_IsKinematic
      value: 1
      objectReference: {fileID: 0}
    - target: {fileID: 3460937955178067215, guid: 2523dfac71a124742b390bea534a6fed, type: 3}
      propertyPath: m_Name
      value: cube_1
      objectReference: {fileID: 0}
    - target: {fileID: 3460937955178067218, guid: 2523dfac71a124742b390bea534a6fed, type: 3}
      propertyPath: m_RootOrder
      value: 0
      objectReference: {fileID: 0}
    - target: {fileID: 3460937955178067218, guid: 2523dfac71a124742b390bea534a6fed, type: 3}
      propertyPath: m_LocalScale.x
      value: 2.21
      objectReference: {fileID: 0}
    - target: {fileID: 3460937955178067218, guid: 2523dfac71a124742b390bea534a6fed, type: 3}
      propertyPath: m_LocalScale.y
      value: 2.21
      objectReference: {fileID: 0}
    - target: {fileID: 3460937955178067218, guid: 2523dfac71a124742b390bea534a6fed, type: 3}
      propertyPath: m_LocalScale.z
      value: 2.21
      objectReference: {fileID: 0}
    - target: {fileID: 3460937955178067218, guid: 2523dfac71a124742b390bea534a6fed, type: 3}
      propertyPath: m_LocalPosition.x
      value: 0
      objectReference: {fileID: 0}
    - target: {fileID: 3460937955178067218, guid: 2523dfac71a124742b390bea534a6fed, type: 3}
      propertyPath: m_LocalPosition.y
      value: -0.162
      objectReference: {fileID: 0}
    - target: {fileID: 3460937955178067218, guid: 2523dfac71a124742b390bea534a6fed, type: 3}
      propertyPath: m_LocalPosition.z
      value: 0
      objectReference: {fileID: 0}
    - target: {fileID: 3460937955178067218, guid: 2523dfac71a124742b390bea534a6fed, type: 3}
      propertyPath: m_LocalRotation.w
      value: 0.7071068
      objectReference: {fileID: 0}
    - target: {fileID: 3460937955178067218, guid: 2523dfac71a124742b390bea534a6fed, type: 3}
      propertyPath: m_LocalRotation.x
      value: 0.7071068
      objectReference: {fileID: 0}
    - target: {fileID: 3460937955178067218, guid: 2523dfac71a124742b390bea534a6fed, type: 3}
      propertyPath: m_LocalRotation.y
      value: -0
      objectReference: {fileID: 0}
    - target: {fileID: 3460937955178067218, guid: 2523dfac71a124742b390bea534a6fed, type: 3}
      propertyPath: m_LocalRotation.z
      value: -0
      objectReference: {fileID: 0}
    - target: {fileID: 3460937955178067218, guid: 2523dfac71a124742b390bea534a6fed, type: 3}
      propertyPath: m_LocalEulerAnglesHint.x
      value: 90
      objectReference: {fileID: 0}
    - target: {fileID: 3460937955178067218, guid: 2523dfac71a124742b390bea534a6fed, type: 3}
      propertyPath: m_LocalEulerAnglesHint.y
      value: 0
      objectReference: {fileID: 0}
    - target: {fileID: 3460937955178067218, guid: 2523dfac71a124742b390bea534a6fed, type: 3}
      propertyPath: m_LocalEulerAnglesHint.z
      value: 0
      objectReference: {fileID: 0}
    - target: {fileID: 3460937955178067218, guid: 2523dfac71a124742b390bea534a6fed, type: 3}
      propertyPath: m_ConstrainProportionsScale
      value: 1
      objectReference: {fileID: 0}
    - target: {fileID: 3460937955178067219, guid: 2523dfac71a124742b390bea534a6fed, type: 3}
      propertyPath: m_Size.z
      value: 0.079065666
      objectReference: {fileID: 0}
    - target: {fileID: 3460937955178067219, guid: 2523dfac71a124742b390bea534a6fed, type: 3}
      propertyPath: m_Center.y
      value: 0.004413845
      objectReference: {fileID: 0}
    - target: {fileID: 3460937955178067219, guid: 2523dfac71a124742b390bea534a6fed, type: 3}
      propertyPath: m_Center.z
      value: -0.0439694
      objectReference: {fileID: 0}
    - target: {fileID: 3975362403841848265, guid: 2523dfac71a124742b390bea534a6fed, type: 3}
      propertyPath: m_IsActive
      value: 0
      objectReference: {fileID: 0}
    m_RemovedComponents:
    - {fileID: 3460937955178067213, guid: 2523dfac71a124742b390bea534a6fed, type: 3}
  m_SourcePrefab: {fileID: 100100000, guid: 2523dfac71a124742b390bea534a6fed, type: 3}
--- !u!4 &8091152158965607692 stripped
Transform:
  m_CorrespondingSourceObject: {fileID: 3460937955178067218, guid: 2523dfac71a124742b390bea534a6fed, type: 3}
  m_PrefabInstance: {fileID: 4633699060795676702}
  m_PrefabAsset: {fileID: 0}
--- !u!114 &8091152158965607696 stripped
MonoBehaviour:
  m_CorrespondingSourceObject: {fileID: 3460937955178067214, guid: 2523dfac71a124742b390bea534a6fed, type: 3}
  m_PrefabInstance: {fileID: 4633699060795676702}
  m_PrefabAsset: {fileID: 0}
  m_GameObject: {fileID: 0}
  m_Enabled: 1
  m_EditorHideFlags: 0
  m_Script: {fileID: 11500000, guid: e642eec5b2da5b042b717efd65081ef3, type: 3}
  m_Name: 
  m_EditorClassIdentifier: 
--- !u!54 &8091152158965607698 stripped
Rigidbody:
  m_CorrespondingSourceObject: {fileID: 3460937955178067212, guid: 2523dfac71a124742b390bea534a6fed, type: 3}
  m_PrefabInstance: {fileID: 4633699060795676702}
  m_PrefabAsset: {fileID: 0}
